b'{"page":2,"total_results":6154,"total_pages":308,"results":[{"vote_count":0,"id":503125,"video":false,"vote_average":0,"title":"Little Monsters","popularity":6.572,"poster_path":"\\/jJ3X92UrRvtEg5vHhDKYtkVIjQX.jpg","original_language":"en","original_title":"Little Monsters","genre_ids":[27,35],"backdrop_path":null,"adult":false,"overview":"A washed-up musician teams up with a teacher and a kids show personality to protect young children from a sudden outbreak of zombies.","release_date":"2018-12-31"},{"vote_count":68,"id":487004,"video":false,"vote_average":6,"title":"The Full House","popularity":6.333,"poster_path":"\\/fE5eOWDf110gx7iobA1iXMQPBS6.jpg","original_language":"fr","original_title":"Les dents, pipi et au lit","genre_ids":[35],"backdrop_path":"\\/uae7h8GE0An1ilGSVqD70EgWuR2.jpg","adult":false,"overview":"New film by Emmanuel Gillibert","release_date":"2018-03-28"},{"vote_count":0,"id":459151,"video":false,"vote_average":0,"title":"The Boss Baby 2","popularity":6.267,"poster_path":"\\/pKROPpV7XTMHi5Xv5F0r2bwKc9O.jpg","original_language":"en","original_title":"The Boss Baby 2","genre_ids":[16,10751,35,12,14],"backdrop_path":null,"adult":false,"overview":"Sequel to The Boss Baby","release_date":"2021-03-24"},{"vote_count":0,"id":498580,"video":false,"vote_average":0,"title":"Kanchana 3","popularity":6.205,"poster_path":"\\/9SJXwVyXxIW2O5sX08IH3F3g0tR.jpg","original_language":"ta","original_title":"Kanchana 3","genre_ids":[35,27],"backdrop_path":"\\/eIafKq9R9bJnmNZgCrmjou54OlB.jpg","adult":false,"overview":"Kanchana 3 is an UpcomingTamil horror Revenge film directed by Raghava Lawrence, starring himself, Oviya and Vedhika in the leading roles.","release_date":"2018-10-26"},{"vote_count":0,"id":480736,"video":false,"vote_average":0,"title":"25 km\\/h","popularity":6.196,"poster_path":"\\/svxNb0u6oKIRXQQRqhpBk1D1zhE.jpg","original_language":"de","original_title":"25 km\\/h","genre_ids":[35],"backdrop_path":null,"adult":false,"overview":"","release_date":"2018-09-13"},{"vote_count":0,"id":347392,"video":false,"vote_average":0,"title":"Slice","popularity":6.188,"poster_path":"\\/juhSMy4klQkh3aduhh07Oei8UN5.jpg","original_language":"en","original_title":"Slice","genre_ids":[35,27],"backdrop_path":"\\/ymjOGuWAe1yv1ZUR5XFTbmDWBOR.jpg","adult":false,"overview":"In a spooky small town, when a slew of pizza delivery boys are slain on the job, two daring survivors set out to catch the culprits behind the cryptic crime spree.","release_date":"2018-09-10"},{"vote_count":75,"id":481042,"video":false,"vote_average":5.5,"title":"Non c\'\xc3\xa8 campo","popularity":6.138,"poster_path":"\\/evRZ5EQbDkq5MFBGzKaX7UDYQpT.jpg","original_language":"it","original_title":"Non c\'\xc3\xa8 campo","genre_ids":[35,10749],"backdrop_path":null,"adult":false,"overview":"","release_date":"2017-11-02"},{"vote_count":57,"id":446038,"video":false,"vote_average":5.8,"title":"Mission Pays Basque","popularity":5.995,"poster_path":"\\/smizNL3SsCSohya0wtPVSlIr03Q.jpg","original_language":"fr","original_title":"Mission Pays Basque","genre_ids":[35],"backdrop_path":"\\/uOMEVxng54eOEVnMnokr7npOlKG.jpg","adult":false,"overview":"Sibylle, a young Parisian with long teeth, intends to shine in her new job by buying a hardware store in the Basque Country to set up a supermarket. She imagines that she has \\"rolled\\" the old owner but the latter is under curatorship. Sibylle must therefore deal with Ramon, the nephew, to recover his money and sign as soon as possible. Otherwise, the ejection seat is assured. She will soon realize that the Basques do not intend to let themselves be made by a Parisian, however pretty she is.","release_date":"2017-07-12"},{"vote_count":77,"id":398926,"video":false,"vote_average":5.8,"title":"Mon Poussin","popularity":5.958,"poster_path":"\\/zgqeWMK4s8fqdT4pSCPcKUrWXHf.jpg","original_language":"fr","original_title":"Mon Poussin","genre_ids":[35],"backdrop_path":"\\/xtp6RlendYXfF0Jl0DZpDa5jlil.jpg","adult":false,"overview":"Vincent, 18 years old, is dumped by Elina. It is his first love, it is the end of the world! His parents decide to take matters into their own hands and will try everything to make him forget this girl: he will have to follow them in a loving detoxification of which they will imagine the program ...","release_date":"2017-06-28"},{"vote_count":9,"id":108248,"video":false,"vote_average":6.6,"title":"Friends","popularity":5.893,"poster_path":"\\/6FNmyJguLjnTtTzavP07FmFpIpb.jpg","original_language":"ta","original_title":"Friends","genre_ids":[10751,18,35],"backdrop_path":"\\/lrrZAFrjsTgAxTXm4fSCSLp31Et.jpg","adult":false,"overview":"Friends is a 2001 Tamil movie starring Vijay, Surya, Ramesh Khanna, Devayani, Abhinyashree, Vijayalakshmi, Sriman and Vadivelu. The music was composed by Ilaiyaraaja. The film is a remake of the Malayalam film by the same name with actors Mukesh, Sreenivasan, and Jayaram. This film emerged as a Super hit in Vijay\'s career.","release_date":"2001-01-14"},{"vote_count":144,"id":175116,"video":false,"vote_average":5.9,"title":"Out of the Blue","popularity":5.764,"poster_path":"\\/i3ZB3GVSJQQYpVgJBDFpDrsaC3Q.jpg","original_language":"it","original_title":"Buongiorno pap\xc3\xa0","genre_ids":[35],"backdrop_path":"\\/uHgNeIFRdNEsfC6gm08nNPT81xc.jpg","adult":false,"overview":"Andrea (Raoul Bova) is a handsome and confident thirty-eight-year old man: single, \'womanizer\' and superficial, with a successful career in a major product placement agency. His life of one-night stands seems to be just perfect: no responsibilities, hard work and endless fun. Until one day, he gets back home which he shares with Paulo (Edoardo Leo), a bizarre and unemployed friend of his, he finds Layla (Rosabel Laurenti Sellers), an extravagant seventeen-year old girl who claims to be his daughter. And she is not alone... She brought along her grandfather Enzo (Mark Giallini), an unlikely ex-rocker and the father of Andrea\'s first fleeting and forgotten conquest... and they have come to stay!","release_date":"2013-03-14"},{"vote_count":1,"id":536429,"video":false,"vote_average":0,"title":"Shailaja Reddy Alludu","popularity":5.762,"poster_path":"\\/4dAKAjshnnJz4sbB2ILTbbTCC9U.jpg","original_language":"te","original_title":"\xe0\xb0\xb6\xe0\xb1\x88\xe0\xb0\xb2\xe0\xb0\x9c\xe0\xb0\xbe\xe0\xb0\xb0\xe0\xb1\x86\xe0\xb0\xa1\xe0\xb1\x8d\xe0\xb0\xa1\xe0\xb0\xbf \xe0\xb0\x85\xe0\xb0\xb2\xe0\xb1\x8d\xe0\xb0\xb2\xe0\xb1\x81\xe0\xb0\xa1\xe0\xb1\x81","genre_ids":[35,18],"backdrop_path":null,"adult":false,"overview":"Shailaja Reddy Alludu is an upcoming Telugu film written and directed by Maruthi Dasari, starring Naga Chaitanya in the lead role.","release_date":"2018-08-31"},{"vote_count":1,"id":360920,"video":false,"vote_average":0,"title":"The Grinch","popularity":5.716,"poster_path":"\\/lCfKAAFyANPFn04xOPqazd8jwnc.jpg","original_language":"en","original_title":"The Grinch","genre_ids":[16,10751,35],"backdrop_path":"\\/zRDkmww7Bu11wiz2g86RxSreiY4.jpg","adult":false,"overview":"The Grinch hatches a scheme to ruin Christmas when the residents of Whoville plan their annual holiday celebration.","release_date":"2018-11-08"},{"vote_count":82,"id":486078,"video":false,"vote_average":6.2,"title":"The Vegetable","popularity":5.711,"poster_path":"\\/1AQDhiViwpUF7ZcqbEHKfePdzh1.jpg","original_language":"it","original_title":"Il vegetale","genre_ids":[35],"backdrop_path":"\\/5B3L9nj96B2ZWnTucylDiE3V1QL.jpg","adult":false,"overview":"Fabio struggles with a cumbersome father and a capricious and spoiled little sister who consider him a good for nothing, a \xe2\x80\x9cvegetable\xe2\x80\x9d in fact. The unfortunate recent graduate looks for a job reacts to the contempt of his family and demanding employers, when an unexpected event remixes roles\xe2\x80\xa6","release_date":"2018-01-18"},{"vote_count":14,"id":514239,"video":false,"vote_average":5.6,"title":"Les Vieux Fourneaux","popularity":5.685,"poster_path":"\\/cZvF9JHxegTDtLJr7IutThplda4.jpg","original_language":"fr","original_title":"Les Vieux Fourneaux","genre_ids":[35],"backdrop_path":"\\/q4FaxUXcNgQarkg2SVL7oVltcXW.jpg","adult":false,"overview":"","release_date":"2018-08-22"},{"vote_count":44,"id":481762,"video":false,"vote_average":6.1,"title":"Neuilly sa m\xc3\xa8re, sa m\xc3\xa8re !","popularity":5.622,"poster_path":"\\/5H9qkP1ABJl9GV1pJOfDKMxFQnz.jpg","original_language":"fr","original_title":"Neuilly sa m\xc3\xa8re, sa m\xc3\xa8re !","genre_ids":[35],"backdrop_path":null,"adult":false,"overview":"","release_date":"2018-08-08"},{"vote_count":0,"id":512703,"video":false,"vote_average":0,"title":"Opa wird Papa","popularity":5.592,"poster_path":"\\/5W1OtSydG1SigsNesrvbrb9lETb.jpg","original_language":"de","original_title":"Opa wird Papa","genre_ids":[35],"backdrop_path":null,"adult":false,"overview":"","release_date":"2018-09-01"},{"vote_count":31,"id":474047,"video":false,"vote_average":6,"title":"Drink Slay Love","popularity":5.589,"poster_path":"\\/4aqBJfqUGAVEr6HnCIdCStqBzls.jpg","original_language":"en","original_title":"Drink Slay Love","genre_ids":[35,14,10749],"backdrop_path":"\\/lWHyzCx4gjg7p0RafuHLpoHuu51.jpg","adult":false,"overview":"A 16-year old vampire discovers she has the ability to withstand sunlight. Sensing an opportunity to round up new victims, her family enrolls her in high school, where her who-cares attitude quickly makes her the coolest girl around.","release_date":"2017-09-16"},{"vote_count":0,"id":545631,"video":false,"vote_average":0,"title":"Sch\xc3\xb6ne heile Welt","popularity":5.506,"poster_path":"\\/oVB9bM5nxKBYSqeMH1dIR5Ml5.jpg","original_language":"de","original_title":"Sch\xc3\xb6ne heile Welt","genre_ids":[35,18],"backdrop_path":null,"adult":false,"overview":"","release_date":"2018-08-31"},{"vote_count":0,"id":544769,"video":false,"vote_average":0,"title":"Les D\xc3\xa9guns","popularity":5.459,"poster_path":"\\/gaUohiBLHxlpXXpvXhuK3fvqsdV.jpg","original_language":"fr","original_title":"Les D\xc3\xa9guns","genre_ids":[35],"backdrop_path":null,"adult":false,"overview":"","release_date":"2018-09-12"}]}'
